<?xml version="1.0" standalone="no"?>
<!DOCTYPE svg PUBLIC "-//W3C//DTD SVG 1.1//EN" "http://www.w3.org/Graphics/SVG/1.1/DTD/svg11.dtd" >
<svg xmlns="http://www.w3.org/2000/svg">
<metadata>Generated by IcoMoon</metadata>
<defs>
<font id="icon-connect" horiz-adv-x="1024">
<font-face units-per-em="1024" ascent="960" descent="-64" />
<missing-glyph horiz-adv-x="1024" />
<glyph unicode="&#x20;" horiz-adv-x="512" d="" />
<glyph unicode="&#xe600;" glyph-name="google-mail" horiz-adv-x="1097" d="M822.857 814.628c-68.343-0.005-157.943-0.125-276.571-0.297l-489.143-0.745-16.891-7.954c-18.697-8.777-31.543-23.086-37.486-41.6-4.571-14.354-3.863-640 0.747-656 7.154-25.371 32.457-44.114 66.743-49.6 9.234-1.458 214.629-2.377 486.857-2.16 518.857 0.441 482.286-0.8 509.714 17.349 20.549 13.6 26.057 26.743 29.029 68.571 1.467 20.16 2.233 167.086 1.794 326.857l-0.823 290.286-6.88 14.583c-7.771 16.457-21.783 29.486-39.771 37.257-8.846 3.749-21.074 4.777-226.057 4.754zM155.429 760.914l62.857-45.486c103.086-74.514 281.143-202.286 306.286-219.429l23.086-15.863 28.343 19.657c15.611 10.834 90.743 64.686 167.086 119.771s152.229 109.257 169.143 120.686c29.714 20.16 30.629 20.549 39.314 18.171 18.034-4.96 33.6-17.943 40.914-34.286 4.046-8.937 4.32-25.6 4.937-278.857 0.425-177.143-0.186-274.286-1.794-283.429-5.966-32.229-27.886-46.629-77.257-51.429l-16.137-1.563v489.143l-109.486-77.714c-129.6-91.886-242.286-170.514-244.571-171.429-3.063-1.019-35.429 21.509-172.114 119.314-134.4 96.229-176.457 125.486-179.429 125.486-2.469 0-5.166-138.971-5.166-265.143 0-50.743-0.699-121.371-1.57-156.8-1.394-57.143-2.027-64.686-5.371-64.457-2.091 0.172-11.086 1.131-19.954 2.16-34.057 3.954-56.686 17.783-64.229 39.543-4.96 14.011-4.891 557.714 0.075 571.429 7.909 19.543 21.623 31.314 43.429 37.029l11.886 3.131z" />
<glyph unicode="&#xe601;" glyph-name="google-drive" horiz-adv-x="1097" d="M235.429-29.714c0 1.904 183.543 313.143 190.629 322.286l3.429 4.869h333.714c265.143 0 333.714-0.45 333.714-2.217-0.037-1.221-41.829-75.2-93.029-164.571l-93.029-162.286-338.286-0.448c-246.857-0.329-338.286 0.085-338.286 1.536zM163.886 2.286c-104.914 185.143-164.343 292.571-163.886 294.857 1.403 4.571 317.714 560 320 557.714 0.69-0.789 44.8-74.057 97.829-162.743 94.857-158.629 96.457-161.371 93.943-165.943-121.371-207.771-324.571-553.143-326.857-555.429-1.829-1.961-5.783 3.84-21.737 32zM518.171 624c-91.429 155.657-169.143 283.429-169.143 283.429-0.336 0.873 83.886 1.522 193.829 1.493l194.514-0.061 161.829-274.286c88.914-151.314 164.114-278.857 166.857-283.429l5.029-8.663-385.371 0.195-168 281.143z" />
<glyph unicode="&#xe602;" glyph-name="hipchat" d="M507.429 877.714c-133.943 0.011-246.857-38.4-345.143-117.714-214.171-172.571-217.6-466.286-7.611-642.286 49.371-41.371 146.514-90.286 213.029-107.429 56.686-14.537 178.743-20.96 226.743-11.863 30.171 5.691 32.686 5.234 73.6-15.589 45.257-22.857 100.8-42.743 142.171-50.743 39.086-7.657 120.914-7.36 128.914 0.53 3.749 3.749 6.903 13.714 6.903 22.149 0 11.863-6.217 19.863-27.657 35.2-31.543 22.72-53.029 48.686-66.286 80.457l-9.211 21.966 36.571 35.429c70.171 67.657 105.371 122.514 129.6 200.457 18.789 60.571 18.834 155.2 0 215.314-38.857 128-123.429 221.943-256 283.429-68.571 32.229-130.286 45.943-217.143 49.143-9.143 0.343-18.171 0.53-27.2 0.53zM513.623 788.343c53.714-0.302 109.257-9.257 164.8-28.343 61.943-21.28 102.4-45.943 152.686-93.257 72.457-68.114 105.143-138.514 105.829-227.429 0.784-108.8-48.457-198.4-150.857-274.286-24.457-18.057-32.457-27.429-32.457-38.171 0-17.051 22.149-62.4 42.057-86.171 7.977-9.463 14.537-18.834 14.537-20.731 0-7.794-22.469-2.149-64.229 16.114-24.457 10.651-59.657 28.571-78.4 39.771l-34.057 20.366-37.257-6.56c-53.943-9.394-170.057-3.223-221.714 11.703-112 36.571-205.714 107.429-253.714 196.571-129.143 246.857 102.629 496 393.143 493.714zM774.194 344.914c-7.931 0.453-18.537-5.806-37.029-20.023-65.829-50.743-142.171-72.229-242.286-68.571-58.286 2.167-74.743 4.983-114.971 20.023-25.829 9.623-64.457 29.257-85.714 43.429-42.743 28.571-47.086 29.714-57.143 17.371-28.8-34.743 82.971-127.314 184.229-152.686 50.971-12.823 159.086-8.777 206.857 7.794 91.429 31.543 183.314 115.429 158.857 144.914-3.977 4.8-7.817 7.52-12.571 7.794z" />
<glyph unicode="&#xe603;" glyph-name="salesforce" horiz-adv-x="1097" d="M377.143 75.428c-44.571 6.423-87.543 29.486-117.714 63.314-14.583 16.229-28.571 38.4-36.114 57.371-1.264 3.2-2.331 5.897-2.4 6.034-0.056 0.125-3.771-0.443-8.274-1.266-4.48-0.821-15.36-1.733-24.229-2.025-72.686-2.423-138.743 38.171-170.514 104.229-31.543 66.057-21.211 144.686 26.286 200.457 11.131 13.097 26.286 26.286 41.143 35.657l5.806 3.703-3.726 9.897c-4.229 11.223-8.503 27.2-11.086 41.371-2.491 13.76-2.56 51.657-0.095 66.286 11.749 69.486 55.086 128 117.486 157.943 30.4 14.606 58.743 21.12 92.571 21.166 26.057 0.029 43.657-2.697 67.886-10.583 37.257-12.137 72.686-36.343 98.514-67.429l3.954-4.777 7.154 6.56c17.051 15.634 36.571 28.343 56.686 37.029 87.314 37.486 188.571 5.326 240-76.343l5.257-8.366 4.274 1.911c13.189 5.92 34.514 12.023 53.943 15.406 14.674 2.56 44.8 3.543 60.343 1.925 34.971-3.657 69.714-15.246 99.657-33.143 21.074-12.686 47.314-35.886 62.171-54.629 27.657-35.429 44.8-76.343 50.514-120.914 1.552-12.046 1.538-44.343-0.023-56.457-6.651-52.114-29.257-99.886-64.914-136.914-37.714-39.314-85.943-63.771-140.114-70.857-20.389-2.697-54.857-1.762-73.829 2.014-2.674 0.533-3.109 0.168-6.491-5.28-24-38.857-62.171-66.743-105.829-77.257-16.891-4.114-29.486-5.326-48.457-4.617-22.491 0.823-40.229 4.617-59.429 12.754-4.389 1.845-8.274 3.36-8.663 3.36-0.382 0-3.451-5.326-6.834-11.84-14.743-28.343-32.914-49.829-58.286-68.8-25.371-19.017-57.6-32.229-89.371-36.571-13.509-1.881-43.429-1.849-56.457 0.063zM577.6 388.571c9.76 4.229 17.806 15.429 21.897 30.4 0.866 3.2 4.869 24.229 8.869 46.857 4.023 22.583 7.543 42.286 7.84 43.657l0.549 2.651 10.331 0.014c5.691 0.009 10.834 0.334 11.451 0.725 1.17 0.743 3.246 10.24 3.246 14.88v2.697l-22.034 0.544 1.835 7.246c2.043 8.069 3.817 11.017 8.686 14.331 2.971 2.032 4.16 2.226 11.886 1.934l8.594-0.327 2.857 7.703c2.629 7.131 2.72 7.794 1.211 8.891-2.446 1.792-9.12 2.514-19.086 2.066-20.937-0.942-31.314-12.069-37.029-39.771-0.542-2.629-0.629-2.651-8.229-2.651-4.229 0-7.931-0.427-8.251-0.951-1.406-2.27-3.086-15.406-2.089-16.411 0.558-0.558 4.206-1.013 8.091-1.013 6.857 0 7.063-0.073 6.606-2.174-0.267-1.195-3.749-20.48-7.749-42.743-9.097-50.971-10.811-56.686-18.194-61.257-2.606-1.627-4.274-1.895-9.44-1.52-3.451 0.249-7.131 0.599-8.183 0.777-1.529 0.261-2.4-0.955-4.571-6.446-3.566-8.937-3.337-10.24 2.107-11.771 6.971-1.941 22.651-1.090 28.8 1.561zM214.171 429.714c5.029 1.451 7.657 2.949 11.817 6.743 6.72 6.126 9.326 12.389 9.326 22.377 0 8.297-2.183 13.509-7.749 18.537-5.051 4.549-9.531 6.72-24.229 11.794-6.857 2.354-13.989 5.234-15.817 6.446-6.149 4-6.697 10.194-1.33 14.697 5.44 4.571 15.954 4.389 29.943-0.555 12.091-4.274 11.543-4.434 14.651 3.909 1.803 4.846 2.377 7.566 1.735 8.32-1.458 1.753-11.497 5.989-18.331 7.749-4.594 1.173-9.097 1.467-17.851 1.163-13.6-0.473-18.103-2.014-25.371-8.686-6.537-5.989-9.051-11.954-9.074-21.486-0.020-16.046 6.263-21.989 32-30.4 17.966-5.874 22.171-9.371 20.114-16.777-1.522-5.509-5.691-7.886-14.56-8.274-9.349-0.43-17.531 1.618-26.743 6.72-3.909 2.137-7.543 3.726-8.114 3.543-0.56-0.187-2.245-3.703-3.749-7.794-3.177-8.686-3.154-8.731 5.714-13.166 15.291-7.634 32.229-9.349 47.771-4.846zM543.314 429.191c9.394 2.583 16.869 8.891 20.343 17.234 2.491 5.92 2.926 14.994 1.003 20.754-3.223 9.714-11.52 15.497-32 22.377-12.663 4.251-16.297 6.011-18.331 8.914-1.755 2.491-1.963 6.811-0.464 9.6 1.477 2.743 8.343 5.6 13.486 5.623 6.217 0.007 16.709-2.4 22.857-5.234 2.949-1.346 5.92-2.446 6.583-2.446 1.193 0 6.286 12.229 6.286 15.086 0 1.991-10.537 6.789-19.109 8.686-10.857 2.4-27.2 1.621-34.286-1.657-7.291-3.383-11.977-7.703-14.994-13.851-5.257-10.743-4.137-22.446 2.926-30.4 5.371-5.943 10.857-8.846 25.143-13.28 13.417-4.137 18.149-6.331 20.274-9.349 3.337-4.731 0.864-11.611-5.303-14.789-7.131-3.68-25.829-0.512-36.8 6.24-2.766 1.696-5.577 2.88-6.263 2.606-1.403-0.537-5.394-10.491-5.646-14.057-0.125-1.847 0.914-2.971 5.051-5.486 13.189-7.977 34.057-10.811 48.914-6.651zM315.657 430.558c5.829 1.168 11.383 2.537 12.343 3.040 1.616 0.864 1.735 3.177 1.735 33.6 0 20.594-0.405 34.743-1.088 37.943-2.423 11.337-8.777 19.040-19.177 23.314-4.777 1.918-7.131 2.169-20.411 2.181-13.074 0.011-15.954-0.281-22.263-2.256-9.6-3.017-14.537-5.6-14.537-7.634 0-0.907 1.143-4.64 2.537-8.274 1.95-5.097 2.903-6.514 4.114-6.126 0.869 0.272 4.846 1.691 8.846 3.154 6.286 2.309 8.754 2.674 18.4 2.72 9.143 0.055 11.817-0.267 14.88-1.792 4.434-2.192 7.337-7.611 7.36-13.76l0.021-4.023-13.326 0.498c-19.543 0.731-29.257-1.929-38.629-10.606-2.4-2.201-5.486-6.194-6.903-8.869-2.235-4.274-2.537-5.989-2.537-14.057 0.009-6.491 0.494-10.263 1.653-12.891 4.046-9.166 11.749-14.994 23.314-17.6 8.709-1.973 30.171-1.259 43.886 1.451zM278.171 446.443c-9.326 3.497-12.617 12.617-7.886 21.874 3.497 6.834 17.829 9.76 34.971 7.154l3.154-0.478v-13.851c0-16.343 1.447-14.88-15.497-15.589-8.297-0.35-12.091-0.114-14.857 0.923zM457.143 429.118c4.046 0.77 9.371 2.286 11.817 3.383 5.12 2.256 5.166 2.697 1.303 12.96-1.845 4.914-2.354 5.531-4.183 5.006-21.189-6.194-34.971-5.943-45.257 0.802-4.274 2.834-8.274 10.263-9.257 17.28l-0.649 4.594h31.771c23.543 0 32.229 0.304 33.143 1.159 1.406 1.403 1.57 15.771 0.258 22.651-1.936 10.194-4.891 15.977-11.589 22.651-7.749 7.726-14.103 10.491-26.057 11.269-24.229 1.57-42.286-11.223-48.229-34.057-2.354-9.051-2.789-21.074-1.125-30.171 3.657-20.137 15.223-32.686 34.286-37.257 7.429-1.797 24.457-1.854 33.6-0.111zM411.429 495.403c2.857 9.737 7.726 15.017 15.771 17.143 4.709 1.253 11.611 0.597 15.657-1.488 4.114-2.128 8.434-7.794 10.034-13.166 0.823-2.766 1.495-5.6 1.495-6.286 0-1.017-4.48-1.275-22.217-1.275h-22.217l1.493 5.074zM699.429 428.66c10.766 2.279 19.863 8.389 25.829 17.417 5.303 7.909 7.817 16.48 8.48 28.8 1.035 18.949-3.817 34.057-14.149 43.886-9.029 8.594-18.583 12.251-32 12.251-27.429 0-44.343-17.76-46.171-48.229-1.568-26.743 11.291-47.771 32.686-53.714 6.354-1.705 18.309-1.915 25.371-0.443zM680.434 446.169c-5.006 1.319-11.2 7.657-13.509 13.783-2.4 6.354-3.269 24.457-1.557 32.457 1.744 8.206 6.24 15.223 11.52 17.989 8.114 4.251 21.257 2.446 26.971-3.68 8.229-8.914 10.377-33.829 4.137-48-4.891-11.040-15.223-15.726-27.429-12.503zM882.72 429.986c8.434 2.309 8.617 2.651 5.714 10.606-3.36 9.234-3.429 9.28-8.891 7.52-2.697-0.866-8.549-1.52-14.263-1.586-8.297-0.099-10.423 0.216-14.811 2.197-9.577 4.32-14.4 12.571-15.406 26.286-1.218 16.434 4.274 29.486 14.72 34.743 4.869 2.514 16.206 3.291 24.229 1.669 10.537-2.151 10.011-2.4 13.234 6.263 2.537 6.857 2.697 7.817 1.342 8.8-3.177 2.331-13.783 3.771-27.2 3.726-15.703-0.053-20.571-1.433-30.4-8.594-11.177-8.206-17.349-21.28-18.309-38.629-0.711-12.96 0.898-21.92 5.623-31.314 6.080-12.114 15.931-19.794 29.257-22.834 7.566-1.723 26.971-1.143 34.971 1.047zM962.491 428.585c7.291 1.182 16.617 4.297 17.6 5.874 0.711 1.147-3.291 14.126-4.846 15.657-0.514 0.514-3.589-0.065-7.497-1.415-5.623-1.938-8.434-2.274-18.72-2.235-9.166 0.036-12.96 0.439-15.611 1.655-7.703 3.52-12.571 9.691-13.92 17.669-0.357 2.101-0.859 4.571-1.115 5.509-0.437 1.586 1.52 1.691 31.314 1.705 17.486 0.009 32.229 0.334 32.914 0.725 3.109 2.039 2.215 21.143-1.467 31.543-3.634 10.309-12.16 19.154-22.377 23.314-5.623 2.229-20.091 3.040-27.429 1.543-11.931-2.469-24.457-11.794-29.714-22.171-7.703-15.086-7.909-41.371-0.421-56.686 5.143-10.469 17.234-19.52 29.714-22.217 7.337-1.591 23.086-1.813 31.543-0.443zM919.291 493.499c1.271 6.606 5.737 13.577 10.629 16.594 6.377 3.931 15.451 4.16 21.897 0.567 5.257-2.926 9.463-9.326 10.331-15.703l0.629-4.594h-44.069l0.606 3.131zM368.434 499.534v69.486l-10.080 0.277c-7.429 0.204-10.309-0.052-10.88-0.967-0.912-1.433-1.125-135.086-0.22-137.371 0.51-1.326 2.149-1.52 10.903-1.287l10.286 0.274v69.486zM770.72 460.905c0.441 25.371 0.823 31.771 2.112 34.971 2.446 6.263 4.526 8.869 9.349 11.703 3.863 2.265 5.531 2.629 12.434 2.651 4.389 0.014 8.343 0.45 8.8 0.967 1.849 2.059 6.034 15.291 5.12 16.183-1.303 1.301-8.32 2.537-14.697 2.583-7.269 0.057-14.423-2.213-19.749-6.263l-4.389-3.36v8.731l-19.84-0.551-0.251-48.229c-0.139-26.514-0.038-48.914 0.225-49.6 0.354-0.926 3.017-1.173 10.423-0.967l9.943 0.277 0.537 30.857z" />
<glyph unicode="&#xe604;" glyph-name="confluence" horiz-adv-x="1097" d="M739.718 249.885c-11.651 22.882-25.365 45.879-41.371 69.372-11.498 16.846-23.837 33.158-36.749 49.241-5.195 6.494-3.056 14.669 0.955 18.642 3.973 4.087 7.984 8.099 11.919 12.148 55.009 56.193 112.004 114.182 155.629 176.945 46.414 66.698 72.161 129.959 78.655 195.052 0.649 6.609-2.368 13.561-7.602 17.572-3.476 2.598-7.678 4.011-11.88 4.011-2.407 0-4.775-0.42-7.029-1.299-42.326-16.197-85.34-28.421-124.572-37.589-7.984-1.872-14.44-7.793-17.114-14.936-28.612-78.35-101.614-152.879-178.168-230.999-3.132-2.903-7.411-6.762-14.44-6.762-6.953 0-11.231 3.705-14.363 6.762-76.554 78.159-149.555 152.459-178.091 230.732-2.712 7.105-9.206 13.103-17.152 14.936-39.308 9.13-82.284 22.462-124.572 38.621-2.292 0.879-4.66 1.337-7.029 1.337-4.24 0-8.442-1.375-11.842-4.011-5.424-4.126-8.29-10.773-7.602-17.534 6.494-65.094 32.165-129.156 78.617-195.855 43.663-62.764 100.544-120.752 155.591-176.945 101.461-103.371 197.268-201.088 205.634-314.353 0.764-10.238 9.283-18.184 19.521-18.184h119.186c5.386 0 10.543 2.177 14.211 6.074 3.705 3.935 5.654 9.092 5.386 14.516-0.993 21.278-4.126 42.67-9.168 64.139h0.076c-0.191 0.649-0.306 1.299-0.306 1.986 0 4.278 3.4 7.908 7.831 7.908 0.382 0 0.726-0.076 1.070-0.115v0c97.297-14.287 158.8-36.978 158.876-62.038 0 0 0 0 0-0.076 0-23.608-55.276-59.211-145.162-85.34h-0.038c-7.946-2.292-13.829-9.512-13.829-18.069 0-10.429 8.633-18.871 19.215-18.871 1.452 0 2.865 0.153 4.24 0.458 120.867 28.001 200.897 74.95 200.897 127.934 0 63.031-108.261 119.224-269.429 144.589zM420.131 311.311c-2.445 2.483-7.296 5.883-13.867 5.883-8.901 0-14.211-5.654-16.159-8.71-12.988-19.826-24.372-39.308-34.19-58.676-161.016-25.403-269.085-81.558-269.085-144.513 0-53.022 79.534-99.856 200.553-127.858 0 0 0.115 0 0.191 0 1.413-0.306 2.865-0.535 4.393-0.535 10.62 0 19.177 8.442 19.177 18.871 0 8.481-5.806 15.662-13.79 17.954l-0.038 0.115c-89.886 26.167-145.162 61.732-145.162 85.34 0 0.076 0 0.076 0 0.076 0.076 25.021 61.427 47.713 158.456 61.961 0.344 0.076 0.649 0.115 0.993 0.115 4.508 0 7.908-3.667 7.908-8.022 0-0.688-0.115-1.299-0.267-1.91l0.115-0.115c-5.042-21.354-8.099-42.632-9.13-63.871-0.229-5.31 1.681-10.582 5.424-14.554 3.705-3.858 8.901-6.074 14.211-6.074h119.186c10.2 0 18.871 8.022 19.597 18.26 2.559 34.839 13.523 69.754 33.235 106.542 6.876 12.683 1.566 24.601-2.407 29.682-19.559 25.518-43.587 52.717-79.343 90.039zM534.275 605.647c4.699-4.584 10.009-5.463 13.714-5.463v0c3.705 0 9.054 0.879 13.752 5.463 41.983 40.798 64.635 88.473 69.525 101.728 0.688 1.986 1.452 4.126 1.452 7.22 0 10.543-8.786 18.184-18.031 18.184-7.602 0-29.223-2.292-66.584-2.292h-0.229c-37.322 0-58.982 2.292-66.584 2.292-9.245 0-18.031-7.602-18.031-18.184 0-3.094 0.726-5.272 1.452-7.22 4.966-13.217 27.543-60.892 69.563-101.728z" />
<glyph unicode="&#xe605;" glyph-name="jira" horiz-adv-x="1097" d="M189.862 673.842c0 0-6.757-143.212 205.594-351.7 212.347-208.49 236.481-293.174 224.898-351.698h154.435c0 0 14.037 241.943-225.339 411.824 0 0-164.785 146.556-191.638 262.92 0 0-81.119 0.042-137.558 45.437 0 0-30.437 18.251-30.392-16.783zM518.564 343.050c42.641-30.262 77.107-62.837 105.181-95.93 20.479 21.842 43.398 45.284 69.139 70.552 212.347 208.489 205.594 356.167 205.594 356.167 0.043 35.038-30.396 15.666-30.396 15.666-56.439-45.397-137.558-46.553-137.558-46.553-26.849-116.363-191.639-265.153-191.639-265.153-11.155-7.919-21.586-16.044-31.67-24.265 7.14-6.731 11.349-10.485 11.349-10.485zM516.528 116.851c-27.403 35.432-63.953 76.909-112.303 126.321-98.599-141.704-90.68-281.729-90.68-281.729h154.435c-6.852 36.015-1.18 81.582 48.548 155.409zM466.393 632.213h153.017c0 0 19.993 2.814 15.117-23.657-6.933-37.645-89.537-113.928-89.537-113.928s-60.397 56.084-87.295 108.764c0 0-10.863 28.821 8.698 28.821zM812.601 790.461c0-36.928-29.937-66.866-66.866-66.866s-66.87 29.937-66.87 66.866c0 36.933 29.942 66.87 66.87 66.87s66.866-29.937 66.866-66.87zM418.787 790.461c0-36.928-29.937-66.866-66.866-66.866s-66.87 29.937-66.87 66.866c0 36.933 29.942 66.87 66.87 66.87s66.866-29.937 66.866-66.87zM619.554 844.514c0-36.928-29.937-66.866-66.866-66.866s-66.87 29.937-66.87 66.866c0 36.933 29.942 66.87 66.87 66.87s66.866-29.937 66.866-66.87z" />
<glyph unicode="&#xe606;" glyph-name="mailchimp" horiz-adv-x="2286" d="M2272.074 253.16h-2.928v6.141h4.064c1.954 0 4.075-0.677 4.075-3.006 0-3.018-2.71-3.135-5.212-3.135zM2279.57 256.295c0 3.258-1.601 5.038-5.721 5.038h-6.998v-18.183h2.295v7.961h3.264l5.43-7.961h2.586l-5.43 7.961c2.463 0.425 4.574 1.825 4.574 5.184zM2272.578 238.694c-7.468 0-13.487 6.013-13.487 13.481s6.019 13.492 13.487 13.492c7.462 0 13.492-6.024 13.492-13.492s-6.030-13.481-13.492-13.481zM2272.578 267.962c-8.695 0-15.776-7.087-15.776-15.787 0-8.694 7.082-15.77 15.776-15.77 8.7 0 15.787 7.076 15.787 15.77 0 8.7-7.087 15.787-15.787 15.787zM1643.511 507.822c-12.848 0-23.222-10.122-23.322-22.561-0.102-12.535 10.206-22.813 22.975-22.914l0.179-1.864v1.864c12.669 0 23.048 10.116 23.143 22.556 0.089 12.54-10.211 22.819-22.975 22.92zM835.712 507.822c-12.848 0-23.228-10.122-23.317-22.561-0.107-12.535 10.206-22.813 22.97-22.914l0.184-1.864v1.864c12.658 0 23.037 10.116 23.132 22.556 0.103 12.54-10.206 22.819-22.97 22.92zM1469.453 619.1v0zM674.284 359.326c-10.071-40.509-29.374-89.394-64.179-92.193-0.974-0.067-1.92-0.123-2.833-0.123-14.438 0-22.533 9.461-24.062 28.104-1.915 23.334 8.151 50.654 25.624 69.626 11.129 12.081 23.681 18.732 35.337 18.732h0.237c14.724-0.112 25.036-11.93 29.777-22.953l0.251-0.565-0.152-0.627zM993.433 585.857l0.498 0.011c3.281 0 6.164-1.652 8.571-4.904 11.42-15.446 11.588-71.798-8.050-135.927-11.23-36.641-26.323-71.267-43.65-100.109l-2.76-4.591-0.705 5.313c-2.043 15.507-3.045 31.653-3.756 45.397-5.011 96.924 24.308 193.484 49.853 194.811zM728.386 249.711c33.629 2.704 60.316 48.442 70.225 67.98l2.553 5.038 0.969-5.565c4.753-27.488 19.706-73.674 66.48-74.032h0.394c20.232 0 43.191 12.372 66.385 35.773l1.702 1.719 1.237-2.066c15.619-26.122 36.568-40 58.866-38.864 32.84 1.707 52.764 24.974 54.522 41.136 0.448 4.12-0.644 7.994-2.995 10.614-2.956 3.292-7.238 3.678-10.396 0.661l-1.495-1.422c-7.647-7.339-21.889-21.016-37.402-21.828-19.001-0.929-33.058 10.43-42.139 33.875l-0.376 0.985 0.638 0.829c52.243 68.339 88.913 172.619 85.296 242.553-1.668 32.369-11.085 70.959-46.433 70.959-0.867 0-1.747-0.023-2.636-0.073-13.548-0.7-25.859-7.149-36.608-19.174-32.8-36.697-49.965-127.020-43.734-230.114 1.293-21.419 5.011-41.439 11.051-59.482l0.34-1.002-0.688-0.812c-19.387-22.656-38.516-35.141-53.867-35.141-36.932 0-35.69 61.917-32.767 113.276 0.633 11.074 1.568 18.127-1.707 22.136-2.346 2.866-6.259 4.283-11.964 4.333l-0.672 0.005c-13.134 0-15.888-2.704-22.611-22.209-13.99-40.526-41.601-108.524-69.38-108.524-7.703 0.067-13.582 2.698-17.601 7.826-13.475 17.204-3.241 60.098 4.977 94.572 1.478 6.197 2.894 12.148 4.109 17.657 1.803 8.174 1.248 14.136-1.641 17.747-2.894 3.594-8.683 5.055-16.314 4.451-11.902-0.952-19.505-5.934-23.177-28.557l-0.739-4.703-2.766 3.342c-5.195 7.67-15.328 16.812-34.127 16.812-1.651 0-3.353-0.067-5.117-0.207-20.064-1.646-42.917-15.631-59.639-36.49-19.527-24.364-28.848-55.199-26.256-86.819 0.139-1.674 0.381-3.281 0.621-4.876l0.134-0.885-0.605-0.672c-11.683-12.725-23.586-19.174-35.376-19.174-18.195 0.14-28.641 13.665-28.641 36.188 0 37.934 25.702 152.258 25.702 193.646 0 44.048-19.628 68.031-53.71 68.288l-0.515 0.005c-49.763 0-88.554-56.476-125.671-172.658-3.398-10.642-7.093-22.931-10.267-33.556l-5.206-17.478 1.545 18.167c3.449 40.476 5.817 79.849 7.037 117.044 1.847 56.151-5.744 92.288-23.205 110.472-9.422 9.808-21.884 14.64-38.119 14.768h-0.43c-60.899 0-90.071-102.712-111.311-175.183-6.41-21.878-19.051-71.227-27.488-104.957l4.999 8.123c3.745 42.48 14.6 148.887 13.89 206.612-0.767 61.923-21.391 89.691-66.872 90.038h-0.56c-24.297 0-41.148-12.070-51.012-22.203-15.833-16.258-25.7-40.017-25.152-60.535 0.336-12.473 7.991-23.58 13.791-23.58 3.781 0 5.874 5.044 6.781 8.050 14.069 46.516 32.28 69.134 55.659 69.134 9.691-0.073 16.902-2.934 22.31-8.733 18.256-19.589 14.936-72.481 8.913-168.504-1.943-30.948-4.143-66.015-6.001-105.904-0.318-6.847-0.745-13.447-1.148-19.734-1.78-27.7-3.185-49.59 7.317-51.219 13.671-2.133 22.572 3.426 27.118 16.952 6.752 20.076 21.895 74.939 51.196 175.205 28.115 96.213 49.355 131.219 76.529 131.219 31.395 0 33.735-53.906 27.98-167.659-1.226-24.112-2.866-51.426-4.126-81.153-0.175-4.182-0.376-8.224-0.566-12.126-1.209-24.616-2.161-44.036 4.865-51.482 2.195-2.318 5.178-3.465 9.125-3.488 13.609 0 17.696 11.93 24.481 31.709 1.198 3.488 2.469 7.216 3.885 11.124 46.634 128.644 81.12 240.258 127.401 240.258 13.884 0 24.677-11.275 24.677-33.271 0-50.76-24.812-148.843-24.812-198.567 0-17.814 5.122-33.814 14.813-45.050 9.943-11.538 23.854-17.696 40.23-17.825h0.358c15.485 0 31.625 7.524 47.966 22.36l1.534 1.388 1.232-1.663c10.76-14.466 28.131-22.237 46.88-20.792 28.764 2.239 52.898 27.846 61.878 52.003l1.752 4.719 1.758-4.719c6.662-17.926 21.094-39.519 51.935-37.027zM2185.848 372.623v0zM644.171 381.591v0zM2118.087 300.393l-0.345 0.633-0.694 2.2 0.318 0.655c21.789 44.899 46.752 70.634 68.484 70.634h0.224c24.532-0.184 41.495-22.259 41.26-53.666-0.16-20.96-9.405-33.030-17.114-39.463-8.812-7.345-20.535-11.544-32.185-11.544-28.708 0.218-48.414 16.728-59.947 30.55zM2112.141 130.904c-3.504-4.669-8.386-7.031-14.499-7.031-7.020 0.056-12.294 2.502-15.883 7.295-10.055 13.436-7.222 45.005 9.181 102.321 1.954 6.847 4.087 13.733 6.332 20.467l1.903 5.722 1.668-5.789c19.124-66.161 22.914-107.538 11.297-122.984zM1409.703 435.66c0.644 14.287 1.842 28.199 3.549 41.349 11.068 84.77 34.172 143.972 56.202 143.972h0.094c10.503-0.078 15.759-8.022 15.647-23.597-0.295-38.276-24.548-93.072-72.073-162.866l-3.717-5.464 0.295 6.606zM2180.519 242.299l0.773-0.011c46.253 0 78.813 32.050 79.16 77.917 0.175 22.712-6.382 43.499-18.474 58.519-12.781 15.899-30.674 24.381-51.751 24.543h-0.421c-28.445 0-54.858-21.576-80.75-65.982l-2.060-3.544-1.327 3.868c-6.539 19.040-12.361 34.894-15.843 44.372-2.435 6.617-3.516 9.59-3.767 10.553-1.243 4.803-5.352 7.787-10.732 7.787-3.308 0-6.824-1.125-10.155-3.241-3.297-2.094-5.139-4.663-5.8-8.090l-0.171-0.515c-25.914-80.812-47.283-120.067-65.383-120.067-2.631 0.023-4.691 0.885-6.225 2.592-4.742 5.24-3.577 17.702-1.965 34.956 1.181 12.675 2.536 27.029 1.971 42.251-1.075 29.274-17.086 46.852-42.838 47.048-32.722 0.011-53.934-34.833-63.703-55.608l-2.917-6.203-0.643 6.824c-2.441 25.708-11.068 56.414-38.31 56.621-31.776 0-55.983-37.29-70.752-68.585l-3.958-8.386 0.399 9.265c1.758 41.736 3.196 66.379 4.277 73.209 1.080 6.858 0.509 11.46-1.73 14.097-2.121 2.469-6.13 3.381-12.008 3.012-10.172-0.644-15.373-6.836-23.205-27.589-12.859-34.083-45.581-113.377-71.709-113.377-5.184 0.032-9.288 1.803-12.294 5.246-10.956 12.563-6.572 46.516-0.509 93.509l0.459 3.555c2.867 22.248-2.026 26.995-14.102 29.218-1.305 0.235-2.542 0.364-3.678 0.364-9.646 0-14.164-9.248-23.171-34.928-16.045-45.705-36.664-93.772-60.792-93.772-0.885 0-1.758 0.067-2.637 0.207-12.787 2.178-12.507 21.139-12.149 45.162 0.183 12.988 0.403 27.717-1.601 41.013-3.6 23.854-17.663 38.757-36.691 38.903-37.985 0-63.603-48.638-75.51-77.632l-2.704-6.561-0.896 7.043c-1.595 12.574-3.7 32.493-4.613 56.056l-0.046 0.7 0.43 0.549c71.082 89.478 102.975 154.049 103.401 209.372 0.273 35.342-16.039 56.571-43.616 56.784-20.165 0-68.126-16.795-84.787-172.406-3.095-28.859-4.792-58.446-5.044-87.944v-0.577l-0.331-0.47c-32.515-47.076-101.929-128.039-169.875-128.039-61.403 0-110.388 49.674-110.388 137.349 0 117.542 83.202 189.71 145.814 189.71l0.515-0.005c13.604-0.101 25.271-3.902 33.741-10.989 8.795-7.356 13.391-17.668 13.302-29.817-0.131-16.23-5.408-24.571-10.519-32.627-1.316-2.077-2.62-4.137-3.818-6.321-1.209-2.2-2.312-5.402-0.705-8.14 1.646-2.805 5.85-4.574 10.973-4.607 14.903 0 37.447 21.57 37.693 54.080 0.255 34.021-28.406 69.072-79.53 69.072-77.38 0-181.582-84.999-181.582-222.763 0-97.45 61.1-164.803 143.866-164.803 58.732 0 116.831 42.049 168.286 112.291l3.151 4.255 0.224-5.29c1.097-25.708 2.962-45.968 4.328-60.764 0.879-9.512 1.517-16.381 1.483-20.171-0.062-8.313 1.294-14.074 4.16-17.618 2.855-3.544 7.412-5.218 14.298-5.268 11.56 0 13.872 7.882 18.446 27.314l1.321 5.554c5.683 23.552 26.688 100.417 58.284 100.417 5.162-0.045 9.136-1.573 11.963-4.568 6.975-7.401 6.22-22.589 5.336-40.185-0.554-10.978-1.125-22.315 0-33.36 2.978-29.817 15.849-44.395 39.361-44.568 24.14-0.011 49.327 25.993 62.618 50.155l2.513 4.563 0.974-5.117c2.458-12.927 13.43-55.373 47.787-55.373 31.144 0 57.853 32.789 87.138 100.277l3.829 8.812-0.237-9.612c-0.627-25.573-2.010-56.801-2.021-80.941 0-18.676 1.876-25.808 10.508-25.808 0.616 0 1.276-0.084 1.959-0.084 8.28 0 13.9 4.938 16.705 14.712 22.029 76.792 41.075 112.56 59.941 112.56 18.474-0.145 20.21-33.92 21.688-93.61l0.102-4.188c0.448-20.871 1.198-30.113 14.17-30.209 9.842 0 12.288 7.731 17.377 26.766 0.968 3.628 2.032 7.608 3.275 11.908 17.786 61.722 32.537 86.903 50.895 86.903 15.72-0.118 16.593-16.325 16.885-21.649 0.605-11.404-0.571-23.345-1.702-34.866-1.052-10.715-2.144-21.794-1.73-32.106 0.963-24.14 14.181-37.537 37.223-37.71 29.906 0 56.901 34.978 80.543 103.938l1.64 4.815 1.875-4.725c4.283-10.838 9.87-25.512 15.048-43.018l0.198-0.666-0.278-0.633c-22.891-50.833-39.043-107.46-39.272-137.708-0.309-39.843 17.718-65.735 45.929-65.954h0.487c15.345 0 51.113 6.158 51.807 63.177 0.278 23.367-5.24 56.409-16.397 98.223l-1.276 4.792 4.12-2.749c14.242-9.444 30.303-14.505 46.46-14.64z" />
<glyph unicode="&#xe607;" glyph-name="stripe" horiz-adv-x="1097" d="M114.314 459.020c-23.664 8.753-36.633 15.56-36.633 26.258 0 9.076 7.457 14.265 20.749 14.265 24.313 0 49.273-9.402 66.455-17.831l9.725 59.973c-13.615 6.484-41.495 17.182-80.071 17.182-27.231 0-49.925-7.134-66.132-20.423-16.859-13.941-25.612-34.038-25.612-58.352 0-44.090 26.907-62.891 70.671-78.775 28.203-10.051 37.605-17.182 37.605-28.203 0-10.698-9.079-16.859-25.612-16.859-20.423 0-54.136 10.051-76.181 23.017l-9.725-60.62c18.801-10.698 53.812-21.721 90.122-21.721 28.85 0 52.84 6.808 69.049 19.776 18.152 14.262 27.554 35.334 27.554 62.565 0 45.060-27.554 63.863-71.967 79.747zM344.602 494.354l9.725 59.65h-51.342v72.41l-69.030-11.359-9.968-61.050-24.279-3.939-9.088-55.711h33.268v-117.027c0-30.472 7.78-51.544 23.664-64.51 13.292-10.698 32.417-15.886 59.324-15.886 20.746 0 33.389 3.567 42.142 5.835v63.214c-4.863-1.296-15.884-3.564-23.341-3.564-15.884 0-22.691 8.104-22.691 26.582v105.356h41.617zM498.786 557.486c-22.692 0-40.846-11.911-47.977-33.307l-4.863 29.825h-70.345v-252.21h80.394v163.71c10.051 12.317 24.313 16.774 43.764 16.774 4.216 0 8.753 0 14.265-0.973v74.235c-5.512 1.298-10.374 1.945-15.237 1.945zM573.997 578.964c23.341 0 42.142 19.127 42.142 42.468 0 23.664-18.801 42.468-42.142 42.468-23.666 0-42.468-18.804-42.468-42.468 0-23.341 18.801-42.468 42.468-42.468zM533.474 554.004h80.72v-252.208h-80.72v252.208zM842.939 531.31c-14.265 18.478-34.038 27.557-59.324 27.557-23.341 0-43.764-9.725-62.891-30.148l-4.213 25.286h-70.671v-345.573l80.396 13.292v81.043c12.317-3.89 24.96-5.835 36.307-5.835 20.1 0 49.276 5.188 71.967 29.825 21.719 23.664 32.743 60.297 32.743 108.6 0 42.791-8.106 75.208-24.313 95.954zM776.158 375.706c-6.484-12.317-16.533-18.801-28.203-18.801-8.104 0-15.237 1.622-21.719 4.863v119.944c13.615 14.265 25.932 15.886 30.472 15.886 20.423 0 30.472-22.045 30.472-65.159 0-24.639-3.564-43.764-11.021-56.732zM1097.742 430.168c0 40.199-8.753 71.967-25.935 94.335-17.505 22.694-43.764 34.364-77.153 34.364-68.403 0-110.868-50.571-110.868-131.617 0-45.383 11.345-79.421 33.713-101.143 20.1-19.451 48.952-29.176 86.232-29.176 34.362 0 66.132 8.106 86.232 21.396l-8.753 55.111c-19.776-10.698-42.791-16.533-68.726-16.533-15.56 0-26.258 3.241-34.038 10.049-8.429 7.133-13.292 18.804-14.911 35.337h133.236c0.323 3.89 0.973 22.042 0.973 27.878zM962.884 451.563c2.268 35.984 11.994 52.842 30.472 52.842 18.155 0 27.557-17.182 28.852-52.842h-59.324z" />
<glyph unicode="&#xe608;" glyph-name="connect" horiz-adv-x="1097" d="M1038.929 214.603c0 0 46.495 503.86-429.388 518.168 437.523-72.131 429.388-518.168 429.388-518.168zM752.063 317.171c0 0 75.785 212.774 63.819 367.921 67.807-425.548 101.711-418.899 101.711-418.899s-73.791 26.597-93.734 232.721c-17.949-117.469-71.796-181.744-71.796-181.744zM506.759 322.964c0 0 86.611 240.186 72.936 415.321 77.494-480.372 102.566-425.329 102.566-425.329s-70.657-17.514-93.449 215.167c-20.513-132.603-82.053-205.159-82.053-205.159zM272.425 311.891c0 0 75.785 212.774 63.819 367.921 67.807-425.548 89.745-376.787 89.745-376.787s-61.824-15.515-81.768 190.61c-17.949-117.469-71.796-181.744-71.796-181.744zM117.63 215.456c0 0-46.495 503.86 429.388 518.168-437.523-72.131-429.388-518.168-429.388-518.168zM10.454 236.924c0 0 459.728 125.378 1097.143-3.134-778.436 68.958-939.199-78.361-939.199-78.361z" />
<glyph unicode="&#xe609;" glyph-name="webhook" horiz-adv-x="1075" d="M491.745 892.905c-24.756-4.782-43.604-12.941-72.299-31.508-27.569-17.442-56.826-45.855-70.892-68.079-11.253-17.723-25.037-46.136-25.037-51.481 0-1.969-1.125-4.782-2.251-6.189-9.565-11.253-13.785-92.554-6.47-122.374 11.815-47.262 26.163-73.987 59.921-110.558 9.002-9.565 16.316-19.692 16.316-22.224 0-4.501-14.629-30.382-55.138-97.336-6.752-11.253-12.378-21.099-12.378-21.662 0-2.813-15.191-25.319-19.411-28.976-2.251-1.688-9.846-3.376-16.598-3.376-18.286 0-50.356-14.347-64.422-28.976-18.567-19.13-26.725-38.541-27.288-65.266-0.563-35.165 9.002-57.952 33.196-79.332 16.035-14.066 27.569-19.692 48.668-23.631 21.662-4.22 38.541-2.251 57.67 6.47 22.787 10.69 41.073 28.413 50.919 50.075 7.314 15.754 8.44 21.662 8.44 42.198 0.281 20.536-0.844 25.881-7.314 38.541-4.22 8.158-7.596 16.316-7.596 18.567 0 1.969 19.692 36.571 43.886 76.8 88.053 146.567 91.991 153.881 86.646 157.82-2.813 1.969-9.284 4.782-14.347 6.189-16.035 4.501-42.198 22.505-57.108 39.103-18.004 20.255-29.257 43.323-35.165 73.143-4.501 21.38-4.501 24.756 0 46.136 6.752 34.040 16.035 50.919 42.198 76.8 12.378 12.378 27.007 24.475 32.352 27.007s13.503 6.189 18.004 8.44c5.908 2.813 19.974 3.938 50.637 3.657 41.916 0 42.76-0.281 60.765-9.002 49.793-24.193 81.582-74.831 81.582-129.125 0-12.097-1.125-26.163-2.532-31.226-3.657-12.097-1.407-17.16 7.877-19.13 3.938-0.844 14.91-3.376 24.193-5.626 55.982-14.066 52.607-14.629 57.67 7.877 10.409 49.231 4.501 99.305-17.723 145.723-31.789 66.673-75.393 104.651-146.848 128-18.848 6.189-25.881 7.033-61.327 6.752-21.943-0.281-48.387-1.969-58.796-4.22zM500.185 748.026c-8.721-4.501-18.848-11.815-21.943-16.035-28.413-36.571-32.352-47.262-30.382-81.582 0.844-15.473 3.376-25.881 8.158-35.727 8.158-17.16 28.132-37.415 43.323-44.73 6.189-2.813 13.222-6.189 15.754-7.596 2.532-1.125 12.378-3.095 21.943-4.22 9.284-0.844 18.286-3.376 19.692-5.064 2.532-3.095 23.068-39.103 77.644-135.314 16.598-29.257 33.477-59.077 37.415-66.11 4.22-7.033 8.721-15.191 10.409-18.004 5.908-11.253 10.69-11.253 23.068 0.563 6.47 6.47 21.38 16.035 32.914 21.662l20.818 10.409 41.635-1.125c41.635-0.844 41.916-0.844 60.202-10.69 23.912-12.659 58.233-46.699 67.798-67.516 11.253-23.349 15.473-55.982 11.253-82.989-4.22-25.037-7.877-35.165-21.38-56.264-17.723-27.569-37.978-43.042-79.895-61.609-9.846-4.501-75.112-3.938-79.332 0.563-1.969 1.688-6.189 3.376-9.565 3.376-6.752 0-36.009 16.879-46.699 27.007-3.938 3.657-9.002 6.752-11.253 6.752-5.345 0-61.609-55.42-61.609-60.765 0-4.22 16.316-19.974 33.477-32.352 16.598-12.097 34.321-20.818 55.138-27.569 59.64-19.13 99.305-19.411 158.664-0.281 63.859 20.255 122.655 81.020 144.598 149.38 10.127 31.508 11.815 41.635 11.534 75.675 0 29.257-1.407 39.103-7.596 59.64-20.255 68.079-65.266 120.967-131.095 154.163-37.697 18.848-102.119 25.037-149.38 14.066-13.222-3.095-25.319-5.626-27.288-5.626-2.813 0-29.257 44.448-64.703 109.714-4.782 8.44-11.815 21.099-15.754 28.132-4.22 7.033-6.189 13.785-5.064 15.473 5.908 7.596 17.16 41.635 17.16 52.044 0 27.288-19.13 66.673-40.51 82.426-19.974 14.91-33.477 18.848-64.141 18.567-26.444 0-30.382-0.844-45.011-8.44zM225.055 456.58c-41.916-14.347-70.048-31.508-99.868-61.046-47.543-47.262-68.923-99.868-68.923-169.073 0-28.976 1.125-36.571 9.002-64.703 20.536-75.112 88.334-140.659 166.822-161.758 39.385-10.409 113.934-5.064 149.099 10.971 34.884 15.754 51.763 26.725 72.018 46.699 27.851 27.288 49.512 62.734 64.422 105.495l7.314 21.099 86.084 0.844 86.365 0.563 5.064-7.314c12.097-17.723 29.538-34.040 44.73-41.916 15.473-7.877 18.004-8.44 46.418-7.877 36.853 0.563 50.919 6.47 72.58 30.945 18.286 20.536 25.6 39.385 25.6 66.391 0 43.042-25.319 80.176-64.703 95.086-16.598 6.189-50.356 7.314-67.798 1.969-14.347-4.501-41.073-25.6-50.356-39.947l-7.033-10.971-132.22 1.688c-72.862 1.125-133.345 0.844-135.033-0.281s-2.813-18.286-2.813-41.354c0-34.321-0.844-41.354-6.189-54.857-14.629-36.009-51.763-72.58-83.552-82.426-45.292-14.066-75.393-12.378-113.090 5.626-30.101 14.347-51.481 35.165-65.266 63.297-28.976 59.077-18.567 123.78 26.725 167.103 16.879 16.316 43.042 31.789 60.765 36.009 9.846 2.251 9.846 6.189-1.125 49.793-10.409 41.916-12.097 44.448-25.037 39.947z" />
<glyph unicode="&#xe900;" glyph-name="slack" horiz-adv-x="951" d="M868 507.428q35.429 0 59.143-23.143t23.714-58q0-55.429-53.143-74.286l-98.286-33.714 32-95.429q4-12 4-26.857 0-33.714-24-58.286t-57.714-24.571q-26.857 0-48.857 15.429t-30.571 41.143l-31.429 94.286-177.143-60.571 31.429-93.714q4.571-13.714 4.571-26.857 0-33.714-24-58.286t-58.286-24.571q-26.857 0-48.571 15.429t-30.286 41.143l-31.429 93.143-87.429-30.286q-16.571-5.143-28.571-5.143-34.857 0-58 22.857t-23.143 57.714q0 26.857 15.714 48.571t40.857 30.286l89.143 30.286-60 178.857-89.143-30.857q-14.857-4.571-27.429-4.571-34.286 0-57.714 23.143t-23.429 57.429q0 26.857 15.714 48.571t40.857 30.286l89.714 30.286-30.286 90.857q-4.571 13.714-4.571 26.857 0 34.286 24 58.571t58.286 24.286q26.857 0 48.571-15.429t30.286-41.143l30.857-91.429 177.143 60-30.857 91.429q-4.571 13.714-4.571 26.857 0 33.714 24.286 58.286t58 24.571q26.857 0 48.857-15.714t30.571-40.857l30.286-92 92.571 31.429q12 3.429 24.571 3.429 34.286 0 58.571-22.571t24.286-56.286q0-25.714-17.143-46.571t-42.286-29.429l-89.714-30.857 60-180.571 93.714 32q13.714 4.571 26.286 4.571zM414.286 357.714l177.143 60-60 180-177.143-61.143z" />
</font></defs></svg>